%YAML 1.1
%TAG !u! tag:unity3d.com,2011:
--- !u!21 &2100000
Material:
  serializedVersion: 6
  m_ObjectHideFlags: 0
  m_PrefabParentObject: {fileID: 0}
  m_PrefabInternal: {fileID: 0}
  m_Name: Boombox_BaseColor
  m_Shader: {fileID: 46, guid: 0000000000000000f000000000000000, type: 0}
  m_ShaderKeywords: TINTED_OUTLINE _BLEND_OFF _FAKE_LIGHTING _LIT _OVERLAY_OFF _RIMGLOW_OFF
  m_LightmapFlags: 4
  m_EnableInstancingVariants: 0
  m_DoubleSidedGI: 0
  m_CustomRenderQueue: -1
  stringTagMap: {}
  disabledShaderPasses: []
  m_SavedProperties:
    serializedVersion: 3
    m_TexEnvs:
    - _BlendNoiseTexture:
        m_Texture: {fileID: 2800000, guid: 06c991d827bc72c43932bb8124ac3ebf, type: 3}
        m_Scale: {x: 1, y: 1}
        m_Offset: {x: 0, y: 0}
    - _BlendTexture:
        m_Texture: {fileID: 0}
        m_Scale: {x: 1, y: 1}
        m_Offset: {x: 0, y: 0}
    - _BlueTexture:
        m_Texture: {fileID: 0}
        m_Scale: {x: 1, y: 1}
        m_Offset: {x: 0, y: 0}
    - _BumpMap:
        m_Texture: {fileID: 0}
        m_Scale: {x: 1, y: 1}
        m_Offset: {x: 0, y: 0}
    - _ColorMask:
        m_Texture: {fileID: 0}
        m_Scale: {x: 1, y: 1}
        m_Offset: {x: 0, y: 0}
    - _DetailAlbedoMap:
        m_Texture: {fileID: 0}
        m_Scale: {x: 1, y: 1}
        m_Offset: {x: 0, y: 0}
    - _DetailMask:
        m_Texture: {fileID: 0}
        m_Scale: {x: 1, y: 1}
        m_Offset: {x: 0, y: 0}
    - _DetailNormalMap:
        m_Texture: {fileID: 0}
        m_Scale: {x: 1, y: 1}
        m_Offset: {x: 0, y: 0}
    - _EmissionMap:
        m_Texture: {fileID: 0}
        m_Scale: {x: 1, y: 1}
        m_Offset: {x: 0, y: 0}
    - _GreenTexture:
        m_Texture: {fileID: 0}
        m_Scale: {x: 1, y: 1}
        m_Offset: {x: 0, y: 0}
    - _LightingGradient:
        m_Texture: {fileID: 2800000, guid: c8ee94f0168b75440ae490f72fd4dcf4, type: 3}
        m_Scale: {x: 1, y: 1}
        m_Offset: {x: 0, y: 0}
    - _MainTex:
        m_Texture: {fileID: 2800000, guid: 1b4446f78328ba442ad574e101d07a64, type: 3}
        m_Scale: {x: 1, y: 1}
        m_Offset: {x: 0, y: 0}
    - _MetallicGlossMap:
        m_Texture: {fileID: 0}
        m_Scale: {x: 1, y: 1}
        m_Offset: {x: 0, y: 0}
    - _NormalMap:
        m_Texture: {fileID: 0}
        m_Scale: {x: 1, y: 1}
        m_Offset: {x: 0, y: 0}
    - _OcclusionMap:
        m_Texture: {fileID: 0}
        m_Scale: {x: 1, y: 1}
        m_Offset: {x: 0, y: 0}
    - _OutlineTexture:
        m_Texture: {fileID: 0}
        m_Scale: {x: 1, y: 1}
        m_Offset: {x: 0, y: 0}
    - _OverlayTexture1:
        m_Texture: {fileID: 0}
        m_Scale: {x: 1, y: 1}
        m_Offset: {x: 0, y: 0}
    - _OverlayTexture2:
        m_Texture: {fileID: 0}
        m_Scale: {x: 1, y: 1}
        m_Offset: {x: 0, y: 0}
    - _OverlayTexture3:
        m_Texture: {fileID: 0}
        m_Scale: {x: 1, y: 1}
        m_Offset: {x: 0, y: 0}
    - _PanosphereTexture:
        m_Texture: {fileID: 0}
        m_Scale: {x: 1, y: 1}
        m_Offset: {x: 0, y: 0}
    - _ParallaxMap:
        m_Texture: {fileID: 0}
        m_Scale: {x: 1, y: 1}
        m_Offset: {x: 0, y: 0}
    - _RGBMask:
        m_Texture: {fileID: 0}
        m_Scale: {x: 1, y: 1}
        m_Offset: {x: 0, y: 0}
    - _RedTexture:
        m_Texture: {fileID: 0}
        m_Scale: {x: 1, y: 1}
        m_Offset: {x: 0, y: 0}
    - _RimTex:
        m_Texture: {fileID: 0}
        m_Scale: {x: 1, y: 1}
        m_Offset: {x: 0, y: 0}
    - _SpecularMap:
        m_Texture: {fileID: 0}
        m_Scale: {x: 1, y: 1}
        m_Offset: {x: 0, y: 0}
    m_Floats:
    - _AUTO_BLEND: 0
    - _AutoBlendDelay: 2
    - _AutoBlendSpeed: 2
    - _BLINKING_EMISSION: 0
    - _Blend: 0
    - _BlendAlpha: 0
    - _BlendTiling: 1
    - _BumpScale: 1
    - _Clip: 0.5
    - _Cull: 0
    - _Cutoff: 0.5
    - _DetailNormalMapScale: 1
    - _DstBlend: 0
    - _EMISSION: 0
    - _EmissionStrength: 0
    - _EmissiveBlink_Max: 3
    - _EmissiveBlink_Min: 1
    - _EmissiveBlink_Velocity: 4
    - _EmissiveScroll_Interval: 20
    - _EmissiveScroll_Velocity: 10
    - _EmissiveScroll_Width: 10
    - _FAKE_LIGHTING: 1
    - _Gloss: 0
    - _GlossMapScale: 1
    - _Glossiness: 0.5
    - _GlossyReflections: 1
    - _HARD_SPECULAR: 0
    - _INVERT_RIM: 0
    - _LineWidth: 0
    - _Lit: 1
    - _Metallic: 0
    - _Mode: 0
    - _NormalIntensity: 1
    - _OVERLAY: 0
    - _OcclusionStrength: 1
    - _OutlineEmission: 0
    - _OutlineMode: 1
    - _PANOSPHERE: 0
    - _Parallax: 0.02
    - _RGB_MASK: 0
    - _RimColorBias: 1
    - _RimGlow: 0
    - _RimGlowStrength: 1
    - _RimTexTile: 1
    - _RimWidth: 0.5
    - _SCROLLING_EMISSION: 0
    - _SPECULAR_HIGHLIGHTS: 0
    - _Shadow: 0
    - _ShadowStrength: 0.25
    - _SmoothnessTextureChannel: 0
    - _SpecularHighlights: 1
    - _SpecularSize: 0.05
    - _SpecularStrength: 0.2
    - _Speed: 0.05
    - _SrcBlend: 1
    - _UVSec: 0
    - _ZTest: 4
    - _ZWrite: 1
    - _outline_tint: 0.5
    - _outline_width: 0
    m_Colors:
    - _BlendTextureColor: {r: 1, g: 1, b: 1, a: 1}
    - _Color: {r: 1, g: 1, b: 1, a: 1}
    - _EmissionColor: {r: 0, g: 0, b: 0, a: 1}
    - _EmissiveScroll_Direction: {r: 0, g: -10, b: 0, a: 0}
    - _LightDirection: {r: 0, g: 1, b: 0, a: 0}
    - _LineColor: {r: 1, g: 1, b: 1, a: 1}
    - _OverlayColor1: {r: 1, g: 1, b: 1, a: 1}
    - _OverlayColor2: {r: 1, g: 1, b: 1, a: 1}
    - _OverlayColor3: {r: 1, g: 1, b: 1, a: 1}
    - _PanosphereColor: {r: 1, g: 1, b: 1, a: 1}
    - _PanosphereScroll: {r: 0, g: 0, b: 0, a: 0}
    - _RimColor: {r: 1, g: 1, b: 1, a: 1}
    - _RimTexPanSpeed: {r: 0, g: 0, b: 0, a: 0}
    - _SpecularColor: {r: 1, g: 1, b: 1, a: 1}
    - _Tex1Velocity: {r: 0, g: 0, b: 0, a: 0}
    - _Tex2Velocity: {r: 0, g: 0, b: 0, a: 0}
    - _Tex3Velocity: {r: 0, g: 0, b: 0, a: 0}
    - _outline_color: {r: 0.5, g: 0.5, b: 0.5, a: 1}
