%YAML 1.1
%TAG !u! tag:unity3d.com,2011:
--- !u!1045 &1
EditorBuildSettings:
  m_ObjectHideFlags: 0
  serializedVersion: 2
  m_Scenes:
  - enabled: 1
    path: Assets/Scenes/StartScene.unity
    guid: faee2347170a86c47a0cbdc05fd84e31
  - enabled: 1
    path: Assets/Scenes/MainScene.unity
    guid: 19366f1d20b02a448ac74158ab5c0880
  m_configObjects:
    com.unity.xr.management.loader_settings: {fileID: 11400000, guid: 4563566bd78ba8e42855a30ee3cbd7c9,
      type: 2}
